airbnb_sliceds01e05
…
train %>% count(name, sort = TRUE)

## # A tibble: 25,347 x 2
##    name                                                n
##    <chr>                                           <int>
##  1 Hillside Hotel                                     10
##  2 New york Multi-unit building                        9
##  3 Private room                                        8
##  4 Private Room                                        7
##  5 <NA>                                                7
##  6 Artsy Private BR in Fort Greene Cumberland          6
##  7 Home away from home                                 6
##  8 A CLASSIC NYC NEIGHBORHOOD-EAST 86TH/5TH AVENUE     5
##  9 Brooklyn Apartment                                  5
## 10 Harlem Gem                                          5
## # ... with 25,337 more rows
…
# 0.535 with minimal rmse

xg_tune %>% collect_metrics() %>% arrange(mean)

## # A tibble: 60 x 8
##     mtry trees .metric .estimator  mean     n std_err .config              
##    <dbl> <dbl> <chr>   <chr>      <dbl> <int>   <dbl> <chr>                
##  1     6  1000 rmse    standard   0.441     5 0.00443 Preprocessor1_Model60
##  2     6   950 rmse    standard   0.442     5 0.00439 Preprocessor1_Model59
##  3     4  1000 rmse    standard   0.442     5 0.00451 Preprocessor1_Model40
##  4     6   900 rmse    standard   0.442     5 0.00436 Preprocessor1_Model58
##  5     4   950 rmse    standard   0.442     5 0.00445 Preprocessor1_Model39
##  6     6   850 rmse    standard   0.442     5 0.00432 Preprocessor1_Model57
##  7     4   900 rmse    standard   0.442     5 0.00440 Preprocessor1_Model38
##  8     6   800 rmse    standard   0.442     5 0.00429 Preprocessor1_Model56
##  9     6   750 rmse    standard   0.443     5 0.00427 Preprocessor1_Model55
## 10     4   850 rmse    standard   0.443     5 0.00434 Preprocessor1_Model37
## # ... with 50 more rows
…
xg_fit %>% predict_testing() %>% write_csv("D:/sample_attempt1.csv")

Text Analysis

Linear regression

library(tidytext)

## Warning: package 'tidytext' was built under R version 4.1.2

train %>% unnest_tokens(word, name) %>% count(word, sort = TRUE)

## # A tibble: 6,043 x 2
##    word          n
##    <chr>     <int>
##  1 in         8848
##  2 room       5350
##  3 bedroom    4374
##  4 private    3904
##  5 apartment  3577
##  6 cozy       2652
##  7 apt        2484
##  8 brooklyn   2189
##  9 studio     2171
## 10 1          2128
## # ... with 6,033 more rows
…
lin_tune %>%
  collect_metrics() %>%
  arrange(mean)

## # A tibble: 244 x 9
##     penalty max_tokens threshold .metric .estimator  mean     n std_err .config 
##       <dbl>      <dbl>     <dbl> <chr>   <chr>      <dbl> <int>   <dbl> <chr>   
##  1 0.00126         500     0.001 rmse    standard   0.447     5 0.00399 Preproc~
##  2 0.00158         500     0.001 rmse    standard   0.447     5 0.00398 Preproc~
##  3 0.001           500     0.001 rmse    standard   0.447     5 0.00399 Preproc~
##  4 0.00200         500     0.001 rmse    standard   0.447     5 0.00399 Preproc~
##  5 0.000794        500     0.001 rmse    standard   0.447     5 0.00399 Preproc~
##  6 0.000631        500     0.001 rmse    standard   0.447     5 0.00399 Preproc~
##  7 0.000501        500     0.001 rmse    standard   0.448     5 0.00399 Preproc~
##  8 0.000398        500     0.001 rmse    standard   0.448     5 0.00398 Preproc~
##  9 0.00251         500     0.001 rmse    standard   0.448     5 0.00398 Preproc~
## 10 0.000316        500     0.001 rmse    standard   0.448     5 0.00398 Preproc~
## # ... with 234 more rows
…
